Name                      Stmts   Miss  Cover
---------------------------------------------
src/tardyon/__init__.py       0      0   100%
src/tardyon/cli.py            4      1    75%
tests/test_cli.py             4      0   100%
---------------------------------------------
TOTAL                         8      1    88%
